..............
----------------------------------------------------------------------
Ran 14 tests in 0.002s

OK
Name               Stmts   Miss Branch BrPart  Cover   Missing
--------------------------------------------------------------
Diplomacy.py          58      2     42      3    95%   45, 49, 55->51
TestDiplomacy.py      67      0      0      0   100%
--------------------------------------------------------------
TOTAL                125      2     42      3    97%
